…
We now have two data frames for each year:

`offense` which has `$team`, `$off_epa`, and `$season`

`defense` which has `$team`, `$def_epa`, and `$season`

We can see the output for the year 2023 here. For example, the defensive
EPA across all of 2023 for ARI (Arizona Cardinals) is 0.091

``` r
defense
```

    ## # A tibble: 32 × 2
    ##    team  def_epa
    ##    <chr>   <dbl>
    ##  1 ARI    0.0909
    ##  2 ATL   -0.0460
    ##  3 BAL   -0.129 
    ##  4 BUF   -0.0508
    ##  5 CAR    0.0291
    ##  6 CHI   -0.0257
    ##  7 CIN    0.0331
    ##  8 CLE   -0.156 
    ##  9 DAL   -0.0871
    ## 10 DEN    0.0197
    ## # ℹ 22 more rows
…
#merge playoff_outcomes into win_loss_totals_allteams_allyears such that the $game_type column gets added to the respective teams by matching columns season AND team
win_loss_totals_allteams_allyears <- merge(win_loss_totals_allteams_allyears, playoff_outcomes, by.x = c("season", "team"), by.y = c("season", "Team"), all.x = TRUE)
#set the value for $playoffs to 1 if the value in $game_type is not NA so that we can have a binary made/missed playoffs value
win_loss_totals_allteams_allyears$playoffs <- ifelse(!is.na(win_loss_totals_allteams_allyears$game_type), 1, win_loss_totals_allteams_allyears$playoffs)
```

Looking at our output where we look only at the win, loss, tie,
playoffs, and game_type columns…

``` r
tibble(win_loss_totals_allteams_allyears)
```

    ## # A tibble: 608 × 7
    ##    season team   wins losses  ties playoffs game_type
    ##     <int> <chr> <int>  <int> <int>    <dbl> <chr>    
    ##  1   2002 ARI       5     11     0        0 <NA>     
    ##  2   2002 ATL       9      6     1        1 DIV      
    ##  3   2002 BAL       7      9     0        0 <NA>     
    ##  4   2002 BUF       8      8     0        0 <NA>     
    ##  5   2002 CAR       7      9     0        0 <NA>     
    ##  6   2002 CHI       4     12     0        0 <NA>     
    ##  7   2002 CIN       2     14     0        0 <NA>     
    ##  8   2002 CLE       9      7     0        1 WC       
    ##  9   2002 DAL       5     11     0        0 <NA>     
    ## 10   2002 DEN       9      7     0        0 <NA>     
    ## # ℹ 598 more rows
…
#Make and save the dataframe as a .csv for later use if needed in the data folder.
common_columns <- c("season", "team")
specific_columns <- c("off_epa", "def_epa", "total_epa")
merged_df_subset <- merged_df[, c(common_columns, specific_columns)]
win_loss_totals_allteams_allyears_merged <- merge(win_loss_totals_allteams_allyears, merged_df_subset, by = common_columns, all.x = TRUE)
```

Which gives us our final

``` r
tibble(win_loss_totals_allteams_allyears_merged)
```

    ## # A tibble: 608 × 11
    ##    season team   wins losses  ties playoffs game_type probability_to_make_play…¹
    ##     <int> <chr> <int>  <int> <int>    <dbl> <chr>     <chr>                     
    ##  1   2002 ARI       5     11     0        0 <NA>      0.04                      
    ##  2   2002 ATL       9      6     1        1 DIV       43.96                     
    ##  3   2002 BAL       7      9     0        0 <NA>      1.82                      
    ##  4   2002 BUF       8      8     0        0 <NA>      10.77                     
    ##  5   2002 CAR       7      9     0        0 <NA>      1.82                      
    ##  6   2002 CHI       4     12     0        0 <NA>      0.01                      
    ##  7   2002 CIN       2     14     0        0 <NA>      0.00                      
    ##  8   2002 CLE       9      7     0        1 WC        43.96                     
    ##  9   2002 DAL       5     11     0        0 <NA>      0.04                      
    ## 10   2002 DEN       9      7     0        0 <NA>      43.96                     
    ## # ℹ 598 more rows
    ## # ℹ abbreviated name: ¹​probability_to_make_playoffs
    ## # ℹ 3 more variables: off_epa <dbl>, def_epa <dbl>, total_epa <dbl>
…
